COA LAB/LABS/MotionDetector/simulation/qsim/MotionDetector.msim.vcd
$comment
	File created using the following command:
		vcd file MotionDetector.msim.vcd -direction
$end
$date
	Tue Oct 22 11:19:54 2024
$end
$version
	ModelSim Version 2020.1
$end
$timescale
	1ps
$end

$scope module motiondetector_vhd_vec_tst $end
$var wire 1 ! clk $end
$var wire 1 " entered $end
$var wire 1 # exited $end
$var wire 1 $ sensor [1] $end
$var wire 1 % sensor [0] $end

$scope module i1 $end
$var wire 1 & gnd $end
$var wire 1 ' vcc $end
$var wire 1 ( unknown $end
$var wire 1 ) devoe $end
$var wire 1 * devclrn $end
$var wire 1 + devpor $end
$var wire 1 , ww_devoe $end
$var wire 1 - ww_devclrn $end
$var wire 1 . ww_devpor $end
$var wire 1 / ww_clk $end
$var wire 1 0 ww_sensor [1] $end
$var wire 1 1 ww_sensor [0] $end
$var wire 1 2 ww_entered $end
$var wire 1 3 ww_exited $end
$var wire 1 4 \clk~inputclkctrl_INCLK_bus\ [3] $end
$var wire 1 5 \clk~inputclkctrl_INCLK_bus\ [2] $end
$var wire 1 6 \clk~inputclkctrl_INCLK_bus\ [1] $end
$var wire 1 7 \clk~inputclkctrl_INCLK_bus\ [0] $end
$var wire 1 8 \entered~output_o\ $end
$var wire 1 9 \exited~output_o\ $end
$var wire 1 : \clk~input_o\ $end
$var wire 1 ; \clk~inputclkctrl_outclk\ $end
$var wire 1 < \sensor[1]~input_o\ $end
$var wire 1 = \Mux2~0_combout\ $end
$var wire 1 > \sensor[0]~input_o\ $end
$var wire 1 ? \Mux2~1_combout\ $end
$var wire 1 @ \Mux1~2_combout\ $end
$var wire 1 A \Mux1~3_combout\ $end
$var wire 1 B \Mux4~3_combout\ $end
$var wire 1 C \Mux4~1_combout\ $end
$var wire 1 D \Mux4~2_combout\ $end
$var wire 1 E \Equal1~0_combout\ $end
$var wire 1 F \Mux0~0_combout\ $end
$var wire 1 G \Mux4~0_combout\ $end
$var wire 1 H \Mux4~4_combout\ $end
$var wire 1 I \Mux0~1_combout\ $end
$var wire 1 J \Mux0~2_combout\ $end
$var wire 1 K \Mux3~0_combout\ $end
$var wire 1 L \Mux3~1_combout\ $end
$var wire 1 M \Mux7~0_combout\ $end
$var wire 1 N \prevState[1]~0_combout\ $end
$var wire 1 O \prevState[1]~1_combout\ $end
$var wire 1 P \Mux8~0_combout\ $end
$var wire 1 Q \prevState[0]~4_combout\ $end
$var wire 1 R \enter~4_combout\ $end
$var wire 1 S \prevState[0]~5_combout\ $end
$var wire 1 T \prevState[0]~2_combout\ $end
$var wire 1 U \prevState[0]~3_combout\ $end
$var wire 1 V \prevState[0]~6_combout\ $end
$var wire 1 W \Mux10~0_combout\ $end
$var wire 1 X \enter~5_combout\ $end
$var wire 1 Y \enter~6_combout\ $end
$var wire 1 Z \enter~11_combout\ $end
$var wire 1 [ \enter~7_combout\ $end
$var wire 1 \ \enter~8_combout\ $end
$var wire 1 ] \enter~9_combout\ $end
$var wire 1 ^ \enter~10_combout\ $end
$var wire 1 _ \enter~q\ $end
$var wire 1 ` \Mux11~0_combout\ $end
$var wire 1 a \exitt~q\ $end
$var wire 1 b prevState [4] $end
$var wire 1 c prevState [3] $end
$var wire 1 d prevState [2] $end
$var wire 1 e prevState [1] $end
$var wire 1 f prevState [0] $end
$var wire 1 g logicState [4] $end
$var wire 1 h logicState [3] $end
$var wire 1 i logicState [2] $end
$var wire 1 j logicState [1] $end
$var wire 1 k logicState [0] $end
$upscope $end
$upscope $end
$enddefinitions $end
#0
$dumpvars
0!
0"
0#
0&
1'
x(
1)
1*
1+
1,
1-
1.
0/
02
03
08
09
0:
0;
0<
1=
0>
0?
0@
0A
0B
1C
1D
0E
1F
0G
0H
0I
0J
1K
0L
0M
0N
1O
0P
0Q
1R
1S
0T
0U
0V
0W
0X
0Y
0Z
0[
0\
0]
1^
0_
0`
0a
0$
0%
00
01
xb
xc
0d
0e
0f
0g
0h
0i
0j
0k
14
15
16
07
$end
#40000
1!
1/
1:
17
1;
#80000
0!
0/
0:
07
0;
#110000
1%
11
1>
0C
1I
1L
1P
1Q
1X
0^
0S
1U
0D
1H
1V
#120000
1!
1/
1:
17
1;
1k
1j
1e
1f
0F
0I
0R
0=
1@
1N
0Q
1T
0U
0X
1^
0O
1U
1Z
0^
#140000
0%
01
0>
1C
0L
1D
0H
#160000
0!
0/
0:
07
0;
#190000
1%
1$
11
10
1<
1>
1A
0C
1E
1Q
0Z
1^
0N
0D
1H
1O
#200000
1!
1/
1:
17
1;
1h
0j
1B
1F
1M
1N
0P
0T
1[
0@
1G
0K
0O
0U
1Z
0^
0A
1]
0Z
0H
#240000
0!
0/
0:
07
0;
#270000
0%
01
0>
0E
1I
0Q
0[
0]
1J
0G
1H
1^
#280000
1!
1/
1:
17
1;
0h
1g
1W
1X
1D
0H
0J
1\
0^
#300000
0$
00
0<
1C
0I
0M
1R
1[
0X
1^
#320000
0!
0/
0:
07
0;
#360000
1!
1/
1:
17
1;
0k
0g
1_
0W
1]
1=
0B
1K
0N
1S
0[
0\
0]
0V
1O
0^
18
1^
12
1"
#400000
0!
0/
0:
07
0;
#440000
1!
1/
1:
17
1;
0e
0f
0_
08
02
0"
#480000
0!
0/
0:
07
0;
#520000
1!
1/
1:
17
1;
#560000
0!
0/
0:
07
0;
#600000
1!
1/
1:
17
1;
#640000
0!
0/
0:
07
0;
#680000
1!
1/
1:
17
1;
#720000
0!
0/
0:
07
0;
#760000
1!
1/
1:
17
1;
#800000
0!
0/
0:
07
0;
#840000
1!
1/
1:
17
1;
#880000
0!
0/
0:
07
0;
#920000
1!
1/
1:
17
1;
#960000
0!
0/
0:
07
0;
