COA LAB/LABS/LAB5/SQ_Detector/simulation/qsim/Sequence_Detector.msim.vcd
$comment
	File created using the following command:
		vcd file Sequence_Detector.msim.vcd -direction
$end
$date
	Thu Oct 10 20:06:43 2024
$end
$version
	ModelSim Version 2020.1
$end
$timescale
	1ps
$end

$scope module sequence_detector_vhd_vec_tst $end
$var wire 1 ! clk $end
$var wire 1 " result $end
$var wire 1 # x $end

$scope module i1 $end
$var wire 1 $ gnd $end
$var wire 1 % vcc $end
$var wire 1 & unknown $end
$var wire 1 ' devoe $end
$var wire 1 ( devclrn $end
$var wire 1 ) devpor $end
$var wire 1 * ww_devoe $end
$var wire 1 + ww_devclrn $end
$var wire 1 , ww_devpor $end
$var wire 1 - ww_clk $end
$var wire 1 . ww_x $end
$var wire 1 / ww_result $end
$var wire 1 0 \clk~inputclkctrl_INCLK_bus\ [3] $end
$var wire 1 1 \clk~inputclkctrl_INCLK_bus\ [2] $end
$var wire 1 2 \clk~inputclkctrl_INCLK_bus\ [1] $end
$var wire 1 3 \clk~inputclkctrl_INCLK_bus\ [0] $end
$var wire 1 4 \result~output_o\ $end
$var wire 1 5 \clk~input_o\ $end
$var wire 1 6 \clk~inputclkctrl_outclk\ $end
$var wire 1 7 \x~input_o\ $end
$var wire 1 8 \Mux4~0_combout\ $end
$var wire 1 9 \Mux4~1_combout\ $end
$var wire 1 : \Mux3~0_combout\ $end
$var wire 1 ; \Mux3~1_combout\ $end
$var wire 1 < \Mux5~0_combout\ $end
$var wire 1 = \Mux5~1_combout\ $end
$var wire 1 > \Mux2~0_combout\ $end
$var wire 1 ? \Mux2~1_combout\ $end
$var wire 1 @ \Mux1~0_combout\ $end
$var wire 1 A \Mux1~1_combout\ $end
$var wire 1 B \Mux0~0_combout\ $end
$var wire 1 C \Mux0~1_combout\ $end
$var wire 1 D \result~reg0_q\ $end
$var wire 1 E mystate [4] $end
$var wire 1 F mystate [3] $end
$var wire 1 G mystate [2] $end
$var wire 1 H mystate [1] $end
$var wire 1 I mystate [0] $end
$upscope $end
$upscope $end
$enddefinitions $end
#0
$dumpvars
0!
0"
0#
0$
1%
x&
1'
1(
1)
1*
1+
1,
0-
0.
0/
04
05
06
07
18
09
0:
0;
1<
0=
0>
0?
0@
0A
0B
0C
0D
0E
0F
0G
0H
0I
10
11
12
03
$end
#50000
1#
1.
17
19
1=
#60000
1!
1-
15
13
16
1H
1I
08
09
1:
1;
#70000
0#
0.
07
0;
0=
#100000
0!
0-
05
03
06
#130000
1#
1.
17
1;
1=
#140000
1!
1-
15
13
16
0H
1G
0=
0<
1>
1=
#150000
0#
0.
07
0;
1?
#180000
0!
0-
05
03
06
#220000
1!
1-
15
13
16
0G
1F
1<
0>
0:
0=
0?
1@
1B
1C
#260000
0!
0-
05
03
06
#290000
1#
1.
17
1=
1A
#300000
1!
1-
15
13
16
0F
1E
1D
0@
18
0A
19
14
1/
1"
#310000
0#
0.
07
09
0=
#340000
0!
0-
05
03
06
#380000
1!
1-
15
13
16
0I
0E
0B
0C
#420000
0!
0-
05
03
06
#460000
1!
1-
15
13
16
0D
04
0/
0"
#500000
0!
0-
05
03
06
