COA LAB/LABS/LAB6/PreLab/simulation/qsim/SlowClock.msim.vcd
$comment
	File created using the following command:
		vcd file SlowClock.msim.vcd -direction
$end
$date
	Fri Oct 18 21:48:14 2024
$end
$version
	ModelSim Version 2020.1
$end
$timescale
	1ps
$end

$scope module slowclock_vhd_vec_tst $end
$var wire 1 ! clk $end
$var wire 1 " sclk $end

$scope module i1 $end
$var wire 1 # gnd $end
$var wire 1 $ vcc $end
$var wire 1 % unknown $end
$var wire 1 & devoe $end
$var wire 1 ' devclrn $end
$var wire 1 ( devpor $end
$var wire 1 ) ww_devoe $end
$var wire 1 * ww_devclrn $end
$var wire 1 + ww_devpor $end
$var wire 1 , ww_clk $end
$var wire 1 - ww_sclk $end
$var wire 1 . \sclk~output_o\ $end
$var wire 1 / \clk~input_o\ $end
$var wire 1 0 \count[0]~6_combout\ $end
$var wire 1 1 \count[1]~2_combout\ $end
$var wire 1 2 \count[1]~3\ $end
$var wire 1 3 \count[2]~4_combout\ $end
$var wire 1 4 count [31] $end
$var wire 1 5 count [30] $end
$var wire 1 6 count [29] $end
$var wire 1 7 count [28] $end
$var wire 1 8 count [27] $end
$var wire 1 9 count [26] $end
$var wire 1 : count [25] $end
$var wire 1 ; count [24] $end
$var wire 1 < count [23] $end
$var wire 1 = count [22] $end
$var wire 1 > count [21] $end
$var wire 1 ? count [20] $end
$var wire 1 @ count [19] $end
$var wire 1 A count [18] $end
$var wire 1 B count [17] $end
$var wire 1 C count [16] $end
$var wire 1 D count [15] $end
$var wire 1 E count [14] $end
$var wire 1 F count [13] $end
$var wire 1 G count [12] $end
$var wire 1 H count [11] $end
$var wire 1 I count [10] $end
$var wire 1 J count [9] $end
$var wire 1 K count [8] $end
$var wire 1 L count [7] $end
$var wire 1 M count [6] $end
$var wire 1 N count [5] $end
$var wire 1 O count [4] $end
$var wire 1 P count [3] $end
$var wire 1 Q count [2] $end
$var wire 1 R count [1] $end
$var wire 1 S count [0] $end
$upscope $end
$upscope $end
$enddefinitions $end
#0
$dumpvars
0!
0"
0#
1$
x%
1&
1'
1(
1)
1*
1+
0,
0-
0.
0/
10
01
02
03
x4
x5
x6
x7
x8
x9
x:
x;
x<
x=
x>
x?
x@
xA
xB
xC
xD
xE
xF
xG
xH
xI
xJ
xK
xL
xM
xN
xO
xP
0Q
0R
0S
$end
#40000
1!
1,
1/
1S
00
11
#80000
0!
0,
0/
#120000
1!
1,
1/
0S
1R
10
#160000
0!
0,
0/
#200000
1!
1,
1/
1S
00
01
12
13
#240000
0!
0,
0/
#280000
1!
1,
1/
0S
0R
1Q
03
10
02
13
1.
1-
1"
#320000
0!
0,
0/
#360000
1!
1,
1/
1S
00
11
#400000
0!
0,
0/
#440000
1!
1,
1/
0S
1R
10
#480000
0!
0,
0/
#520000
1!
1,
1/
1S
00
01
12
03
#560000
0!
0,
0/
#600000
1!
1,
1/
0S
0R
0Q
13
10
02
03
0.
0-
0"
#640000
0!
0,
0/
#680000
1!
1,
1/
1S
00
11
#720000
0!
0,
0/
#760000
1!
1,
1/
0S
1R
10
#800000
0!
0,
0/
#840000
1!
1,
1/
1S
00
01
12
13
#880000
0!
0,
0/
#920000
1!
1,
1/
0S
0R
1Q
03
10
02
13
1.
1-
1"
#960000
0!
0,
0/
