COA LAB/LABS/LAB6/PreLab/simulation/qsim/SlowClock.msim.vcd
$comment
	File created using the following command:
		vcd file SlowClock.msim.vcd -direction
$end
$date
	Mon Oct 14 23:19:27 2024
$end
$version
	ModelSim Version 2020.1
$end
$timescale
	1ps
$end

$scope module slowclock_vhd_vec_tst $end
$var wire 1 ! clk $end
$var wire 1 " sclk $end

$scope module i1 $end
$var wire 1 # gnd $end
$var wire 1 $ vcc $end
$var wire 1 % unknown $end
$var wire 1 & devoe $end
$var wire 1 ' devclrn $end
$var wire 1 ( devpor $end
$var wire 1 ) ww_devoe $end
$var wire 1 * ww_devclrn $end
$var wire 1 + ww_devpor $end
$var wire 1 , ww_clk $end
$var wire 1 - ww_sclk $end
$var wire 1 . \clk~inputclkctrl_INCLK_bus\ [3] $end
$var wire 1 / \clk~inputclkctrl_INCLK_bus\ [2] $end
$var wire 1 0 \clk~inputclkctrl_INCLK_bus\ [1] $end
$var wire 1 1 \clk~inputclkctrl_INCLK_bus\ [0] $end
$var wire 1 2 \sclk~output_o\ $end
$var wire 1 3 \clk~input_o\ $end
$var wire 1 4 \clk~inputclkctrl_outclk\ $end
$var wire 1 5 \count[0]~6_combout\ $end
$var wire 1 6 \count[1]~2_combout\ $end
$var wire 1 7 \count[1]~3\ $end
$var wire 1 8 \count[2]~4_combout\ $end
$var wire 1 9 count [31] $end
$var wire 1 : count [30] $end
$var wire 1 ; count [29] $end
$var wire 1 < count [28] $end
$var wire 1 = count [27] $end
$var wire 1 > count [26] $end
$var wire 1 ? count [25] $end
$var wire 1 @ count [24] $end
$var wire 1 A count [23] $end
$var wire 1 B count [22] $end
$var wire 1 C count [21] $end
$var wire 1 D count [20] $end
$var wire 1 E count [19] $end
$var wire 1 F count [18] $end
$var wire 1 G count [17] $end
$var wire 1 H count [16] $end
$var wire 1 I count [15] $end
$var wire 1 J count [14] $end
$var wire 1 K count [13] $end
$var wire 1 L count [12] $end
$var wire 1 M count [11] $end
$var wire 1 N count [10] $end
$var wire 1 O count [9] $end
$var wire 1 P count [8] $end
$var wire 1 Q count [7] $end
$var wire 1 R count [6] $end
$var wire 1 S count [5] $end
$var wire 1 T count [4] $end
$var wire 1 U count [3] $end
$var wire 1 V count [2] $end
$var wire 1 W count [1] $end
$var wire 1 X count [0] $end
$upscope $end
$upscope $end
$enddefinitions $end
#0
$dumpvars
0!
0"
0#
1$
x%
1&
1'
1(
1)
1*
1+
0,
0-
02
03
04
15
06
07
08
x9
x:
x;
x<
x=
x>
x?
x@
xA
xB
xC
xD
xE
xF
xG
xH
xI
xJ
xK
xL
xM
xN
xO
xP
xQ
xR
xS
xT
xU
0V
0W
0X
1.
1/
10
01
$end
#50000
1!
1,
13
11
14
1X
05
16
#100000
0!
0,
03
01
04
#150000
1!
1,
13
11
14
0X
1W
15
#200000
0!
0,
03
01
04
#250000
1!
1,
13
11
14
1X
05
06
17
18
#300000
0!
0,
03
01
04
#350000
1!
1,
13
11
14
0X
0W
1V
08
15
07
18
12
1-
1"
#400000
0!
0,
03
01
04
#450000
1!
1,
13
11
14
1X
05
16
#500000
0!
0,
03
01
04
#550000
1!
1,
13
11
14
0X
1W
15
#600000
0!
0,
03
01
04
#650000
1!
1,
13
11
14
1X
05
06
17
08
#700000
0!
0,
03
01
04
#750000
1!
1,
13
11
14
0X
0W
0V
18
15
07
08
02
0-
0"
#800000
0!
0,
03
01
04
#850000
1!
1,
13
11
14
1X
05
16
#900000
0!
0,
03
01
04
#950000
1!
1,
13
11
14
0X
1W
15
