COA LAB/LABS/LAB6/Task1/simulation/qsim/DifferentSpeedLEDs.msim.vcd
$comment
	File created using the following command:
		vcd file DifferentSpeedLEDs.msim.vcd -direction
$end
$date
	Tue Dec 17 02:01:01 2024
$end
$version
	ModelSim Version 2020.1
$end
$timescale
	1ps
$end

$scope module differentspeedleds_vhd_vec_tst $end
$var wire 1 ! clk $end
$var wire 1 " led [3] $end
$var wire 1 # led [2] $end
$var wire 1 $ led [1] $end
$var wire 1 % led [0] $end
$var wire 1 & opcode [2] $end
$var wire 1 ' opcode [1] $end
$var wire 1 ( opcode [0] $end
$var wire 1 ) reset $end

$scope module i1 $end
$var wire 1 * gnd $end
$var wire 1 + vcc $end
$var wire 1 , unknown $end
$var wire 1 - devoe $end
$var wire 1 . devclrn $end
$var wire 1 / devpor $end
$var wire 1 0 ww_devoe $end
$var wire 1 1 ww_devclrn $end
$var wire 1 2 ww_devpor $end
$var wire 1 3 ww_clk $end
$var wire 1 4 ww_led [3] $end
$var wire 1 5 ww_led [2] $end
$var wire 1 6 ww_led [1] $end
$var wire 1 7 ww_led [0] $end
$var wire 1 8 ww_opcode [2] $end
$var wire 1 9 ww_opcode [1] $end
$var wire 1 : ww_opcode [0] $end
$var wire 1 ; ww_reset $end
$var wire 1 < \clk~inputclkctrl_INCLK_bus\ [3] $end
$var wire 1 = \clk~inputclkctrl_INCLK_bus\ [2] $end
$var wire 1 > \clk~inputclkctrl_INCLK_bus\ [1] $end
$var wire 1 ? \clk~inputclkctrl_INCLK_bus\ [0] $end
$var wire 1 @ \led[0]~output_o\ $end
$var wire 1 A \led[1]~output_o\ $end
$var wire 1 B \led[2]~output_o\ $end
$var wire 1 C \led[3]~output_o\ $end
$var wire 1 D \opcode[2]~input_o\ $end
$var wire 1 E \opcode[1]~input_o\ $end
$var wire 1 F \clk~input_o\ $end
$var wire 1 G \clk~inputclkctrl_outclk\ $end
$var wire 1 H \count[0]~75_combout\ $end
$var wire 1 I \reset~input_o\ $end
$var wire 1 J \count[1]~25_combout\ $end
$var wire 1 K \count[1]~26\ $end
$var wire 1 L \count[2]~27_combout\ $end
$var wire 1 M \count[2]~28\ $end
$var wire 1 N \count[3]~29_combout\ $end
$var wire 1 O \count[3]~30\ $end
$var wire 1 P \count[4]~31_combout\ $end
$var wire 1 Q \count[4]~32\ $end
$var wire 1 R \count[5]~33_combout\ $end
$var wire 1 S \count[5]~34\ $end
$var wire 1 T \count[6]~35_combout\ $end
$var wire 1 U \count[6]~36\ $end
$var wire 1 V \count[7]~37_combout\ $end
$var wire 1 W \count[7]~38\ $end
$var wire 1 X \count[8]~39_combout\ $end
$var wire 1 Y \count[8]~40\ $end
$var wire 1 Z \count[9]~41_combout\ $end
$var wire 1 [ \count[9]~42\ $end
$var wire 1 \ \count[10]~43_combout\ $end
$var wire 1 ] \count[10]~44\ $end
$var wire 1 ^ \count[11]~45_combout\ $end
$var wire 1 _ \count[11]~46\ $end
$var wire 1 ` \count[12]~47_combout\ $end
$var wire 1 a \count[12]~48\ $end
$var wire 1 b \count[13]~49_combout\ $end
$var wire 1 c \count[13]~50\ $end
$var wire 1 d \count[14]~51_combout\ $end
$var wire 1 e \count[14]~52\ $end
$var wire 1 f \count[15]~53_combout\ $end
$var wire 1 g \count[15]~54\ $end
$var wire 1 h \count[16]~55_combout\ $end
$var wire 1 i \count[16]~56\ $end
$var wire 1 j \count[17]~57_combout\ $end
$var wire 1 k \count[17]~58\ $end
$var wire 1 l \count[18]~59_combout\ $end
$var wire 1 m \count[18]~60\ $end
$var wire 1 n \count[19]~61_combout\ $end
$var wire 1 o \count[19]~62\ $end
$var wire 1 p \count[20]~63_combout\ $end
$var wire 1 q \count[20]~64\ $end
$var wire 1 r \count[21]~65_combout\ $end
$var wire 1 s \count[21]~66\ $end
$var wire 1 t \count[22]~67_combout\ $end
$var wire 1 u \count[22]~68\ $end
$var wire 1 v \count[23]~69_combout\ $end
$var wire 1 w \count[23]~70\ $end
$var wire 1 x \count[24]~71_combout\ $end
$var wire 1 y \count[24]~72\ $end
$var wire 1 z \count[25]~73_combout\ $end
$var wire 1 { \opcode[0]~input_o\ $end
$var wire 1 | \Mux0~1_combout\ $end
$var wire 1 } \Mux0~0_combout\ $end
$var wire 1 ~ \Mux0~2_combout\ $end
$var wire 1 !! \Mux0~3_combout\ $end
$var wire 1 "! \Mux0~4_combout\ $end
$var wire 1 #! \rtl~0_combout\ $end
$var wire 1 $! \ledout[0]~0_combout\ $end
$var wire 1 %! count [31] $end
$var wire 1 &! count [30] $end
$var wire 1 '! count [29] $end
$var wire 1 (! count [28] $end
$var wire 1 )! count [27] $end
$var wire 1 *! count [26] $end
$var wire 1 +! count [25] $end
$var wire 1 ,! count [24] $end
$var wire 1 -! count [23] $end
$var wire 1 .! count [22] $end
$var wire 1 /! count [21] $end
$var wire 1 0! count [20] $end
$var wire 1 1! count [19] $end
$var wire 1 2! count [18] $end
$var wire 1 3! count [17] $end
$var wire 1 4! count [16] $end
$var wire 1 5! count [15] $end
$var wire 1 6! count [14] $end
$var wire 1 7! count [13] $end
$var wire 1 8! count [12] $end
$var wire 1 9! count [11] $end
$var wire 1 :! count [10] $end
$var wire 1 ;! count [9] $end
$var wire 1 <! count [8] $end
$var wire 1 =! count [7] $end
$var wire 1 >! count [6] $end
$var wire 1 ?! count [5] $end
$var wire 1 @! count [4] $end
$var wire 1 A! count [3] $end
$var wire 1 B! count [2] $end
$var wire 1 C! count [1] $end
$var wire 1 D! count [0] $end
$var wire 1 E! ledout [3] $end
$var wire 1 F! ledout [2] $end
$var wire 1 G! ledout [1] $end
$var wire 1 H! ledout [0] $end
$var wire 1 I! \ALT_INV_reset~input_o\ $end
$upscope $end
$upscope $end
$enddefinitions $end
#0
$dumpvars
0!
0)
0*
1+
x,
1-
1.
1/
10
11
12
03
0;
0@
0A
0B
0C
1D
0E
0F
0G
1H
0I
0J
0K
0L
1M
0N
0O
0P
1Q
0R
0S
0T
1U
0V
0W
0X
1Y
0Z
0[
0\
1]
0^
0_
0`
1a
0b
0c
0d
1e
0f
0g
0h
1i
0j
0k
0l
1m
0n
0o
0p
1q
0r
0s
0t
1u
0v
0w
0x
1y
0z
0{
1|
1}
1~
1!!
1"!
0#!
1$!
1I!
1&
0'
0(
0"
0#
0$
0%
04
05
06
07
18
09
0:
x%!
x&!
x'!
x(!
x)!
x*!
0+!
0,!
0-!
0.!
0/!
00!
01!
02!
03!
04!
05!
06!
07!
08!
09!
0:!
0;!
0<!
0=!
0>!
0?!
0@!
0A!
0B!
0C!
0D!
xE!
xF!
xG!
0H!
1<
1=
1>
0?
$end
#40000
1!
13
1F
1?
1G
1D!
0H
1J
#80000
0!
03
0F
0?
0G
#120000
1!
13
1F
1?
1G
0D!
1C!
1H
#160000
0!
03
0F
0?
0G
#200000
1!
13
1F
1?
1G
1D!
0H
0J
1K
1L
#240000
0!
03
0F
0?
0G
#280000
1!
13
1F
1?
1B!
0L
0M
0!!
1G
0"!
1N
0D!
0C!
1#!
1H
0K
1H!
1L
1M
0$!
0N
1@
1A
1B
1C
17
16
15
14
1%
1$
1#
1"
#320000
0!
03
0F
0?
0G
#360000
1!
13
1F
1?
1G
1D!
0H
1J
#400000
0!
03
0F
0?
0G
#440000
1!
13
1F
1?
1G
0D!
1C!
1H
#480000
0!
03
0F
0?
0G
#520000
1!
13
1F
1?
1G
1D!
0H
0J
1K
0L
0M
1N
#560000
0!
03
0F
0?
0G
#600000
1!
13
1F
1?
0B!
1L
1M
1!!
1G
1"!
0N
0D!
0C!
1A!
0#!
1N
1H
0K
0L
#640000
0!
03
0F
0?
0G
#680000
1!
13
1F
1?
1G
1D!
0H
1J
#720000
0!
03
0F
0?
0G
#760000
1!
13
1F
1?
1G
0D!
1C!
1H
#800000
0!
03
0F
0?
0G
#840000
1!
13
1F
1?
1G
1D!
0H
0J
1K
1L
#880000
0!
03
0F
0?
0G
#920000
1!
13
1F
1?
1B!
0L
0M
0!!
1G
0"!
0N
1O
0D!
0C!
1P
1#!
1H
0K
0H!
1L
1M
1$!
1N
0O
0@
0A
0B
0C
0P
07
06
05
04
0%
0$
0#
0"
#960000
0!
03
0F
0?
0G
