COA LAB/LABS/LAB6/Task1/simulation/qsim/DifferentSpeedLEDs.msim.vcd
$comment
	File created using the following command:
		vcd file DifferentSpeedLEDs.msim.vcd -direction
$end
$date
	Tue Oct 15 00:30:47 2024
$end
$version
	ModelSim Version 2020.1
$end
$timescale
	1ps
$end

$scope module differentspeedleds_vhd_vec_tst $end
$var wire 1 ! clk $end
$var wire 1 " opcode [2] $end
$var wire 1 # opcode [1] $end
$var wire 1 $ opcode [0] $end
$var wire 1 % reset $end
$var wire 1 & sclk $end

$scope module i1 $end
$var wire 1 ' gnd $end
$var wire 1 ( vcc $end
$var wire 1 ) unknown $end
$var wire 1 * devoe $end
$var wire 1 + devclrn $end
$var wire 1 , devpor $end
$var wire 1 - ww_devoe $end
$var wire 1 . ww_devclrn $end
$var wire 1 / ww_devpor $end
$var wire 1 0 ww_clk $end
$var wire 1 1 ww_sclk $end
$var wire 1 2 ww_opcode [2] $end
$var wire 1 3 ww_opcode [1] $end
$var wire 1 4 ww_opcode [0] $end
$var wire 1 5 ww_reset $end
$var wire 1 6 \reset~inputclkctrl_INCLK_bus\ [3] $end
$var wire 1 7 \reset~inputclkctrl_INCLK_bus\ [2] $end
$var wire 1 8 \reset~inputclkctrl_INCLK_bus\ [1] $end
$var wire 1 9 \reset~inputclkctrl_INCLK_bus\ [0] $end
$var wire 1 : \clk~inputclkctrl_INCLK_bus\ [3] $end
$var wire 1 ; \clk~inputclkctrl_INCLK_bus\ [2] $end
$var wire 1 < \clk~inputclkctrl_INCLK_bus\ [1] $end
$var wire 1 = \clk~inputclkctrl_INCLK_bus\ [0] $end
$var wire 1 > \sclk~output_o\ $end
$var wire 1 ? \opcode[0]~input_o\ $end
$var wire 1 @ \clk~input_o\ $end
$var wire 1 A \clk~inputclkctrl_outclk\ $end
$var wire 1 B \count[0]~93_combout\ $end
$var wire 1 C \reset~input_o\ $end
$var wire 1 D \reset~inputclkctrl_outclk\ $end
$var wire 1 E \count[1]~31_combout\ $end
$var wire 1 F \count[1]~32\ $end
$var wire 1 G \count[2]~33_combout\ $end
$var wire 1 H \count[2]~34\ $end
$var wire 1 I \count[3]~35_combout\ $end
$var wire 1 J \count[3]~36\ $end
$var wire 1 K \count[4]~37_combout\ $end
$var wire 1 L \count[4]~38\ $end
$var wire 1 M \count[5]~39_combout\ $end
$var wire 1 N \count[5]~40\ $end
$var wire 1 O \count[6]~41_combout\ $end
$var wire 1 P \count[6]~42\ $end
$var wire 1 Q \count[7]~43_combout\ $end
$var wire 1 R \count[7]~44\ $end
$var wire 1 S \count[8]~45_combout\ $end
$var wire 1 T \count[8]~46\ $end
$var wire 1 U \count[9]~47_combout\ $end
$var wire 1 V \count[9]~48\ $end
$var wire 1 W \count[10]~49_combout\ $end
$var wire 1 X \count[10]~50\ $end
$var wire 1 Y \count[11]~51_combout\ $end
$var wire 1 Z \count[11]~52\ $end
$var wire 1 [ \count[12]~53_combout\ $end
$var wire 1 \ \count[12]~54\ $end
$var wire 1 ] \count[13]~55_combout\ $end
$var wire 1 ^ \count[13]~56\ $end
$var wire 1 _ \count[14]~57_combout\ $end
$var wire 1 ` \count[14]~58\ $end
$var wire 1 a \count[15]~59_combout\ $end
$var wire 1 b \opcode[1]~input_o\ $end
$var wire 1 c \Mux0~0_combout\ $end
$var wire 1 d \count[15]~60\ $end
$var wire 1 e \count[16]~61_combout\ $end
$var wire 1 f \count[16]~62\ $end
$var wire 1 g \count[17]~63_combout\ $end
$var wire 1 h \count[17]~64\ $end
$var wire 1 i \count[18]~65_combout\ $end
$var wire 1 j \count[18]~66\ $end
$var wire 1 k \count[19]~67_combout\ $end
$var wire 1 l \count[19]~68\ $end
$var wire 1 m \count[20]~69_combout\ $end
$var wire 1 n \count[20]~70\ $end
$var wire 1 o \count[21]~71_combout\ $end
$var wire 1 p \count[21]~72\ $end
$var wire 1 q \count[22]~73_combout\ $end
$var wire 1 r \count[22]~74\ $end
$var wire 1 s \count[23]~75_combout\ $end
$var wire 1 t \count[23]~76\ $end
$var wire 1 u \count[24]~77_combout\ $end
$var wire 1 v \count[24]~78\ $end
$var wire 1 w \count[25]~79_combout\ $end
$var wire 1 x \count[25]~80\ $end
$var wire 1 y \count[26]~81_combout\ $end
$var wire 1 z \count[26]~82\ $end
$var wire 1 { \count[27]~83_combout\ $end
$var wire 1 | \count[27]~84\ $end
$var wire 1 } \count[28]~85_combout\ $end
$var wire 1 ~ \count[28]~86\ $end
$var wire 1 !! \count[29]~87_combout\ $end
$var wire 1 "! \count[29]~88\ $end
$var wire 1 #! \count[30]~89_combout\ $end
$var wire 1 $! \count[30]~90\ $end
$var wire 1 %! \count[31]~91_combout\ $end
$var wire 1 &! \opcode[2]~input_o\ $end
$var wire 1 '! \Mux0~1_combout\ $end
$var wire 1 (! \Mux0~2_combout\ $end
$var wire 1 )! count [31] $end
$var wire 1 *! count [30] $end
$var wire 1 +! count [29] $end
$var wire 1 ,! count [28] $end
$var wire 1 -! count [27] $end
$var wire 1 .! count [26] $end
$var wire 1 /! count [25] $end
$var wire 1 0! count [24] $end
$var wire 1 1! count [23] $end
$var wire 1 2! count [22] $end
$var wire 1 3! count [21] $end
$var wire 1 4! count [20] $end
$var wire 1 5! count [19] $end
$var wire 1 6! count [18] $end
$var wire 1 7! count [17] $end
$var wire 1 8! count [16] $end
$var wire 1 9! count [15] $end
$var wire 1 :! count [14] $end
$var wire 1 ;! count [13] $end
$var wire 1 <! count [12] $end
$var wire 1 =! count [11] $end
$var wire 1 >! count [10] $end
$var wire 1 ?! count [9] $end
$var wire 1 @! count [8] $end
$var wire 1 A! count [7] $end
$var wire 1 B! count [6] $end
$var wire 1 C! count [5] $end
$var wire 1 D! count [4] $end
$var wire 1 E! count [3] $end
$var wire 1 F! count [2] $end
$var wire 1 G! count [1] $end
$var wire 1 H! count [0] $end
$var wire 1 I! \ALT_INV_reset~inputclkctrl_outclk\ $end
$upscope $end
$upscope $end
$enddefinitions $end
#0
$dumpvars
0!
0%
0&
0'
1(
x)
1*
1+
1,
1-
1.
1/
00
01
05
0>
1?
0@
0A
1B
0C
0D
0E
0F
0G
1H
0I
0J
0K
1L
0M
0N
0O
1P
0Q
0R
0S
1T
0U
0V
0W
1X
0Y
0Z
0[
1\
0]
0^
0_
1`
0a
0b
0c
0d
0e
1f
0g
0h
0i
1j
0k
0l
0m
1n
0o
0p
0q
1r
0s
0t
0u
1v
0w
0x
0y
1z
0{
0|
0}
1~
0!!
0"!
0#!
1$!
0%!
0&!
0'!
0(!
1I!
0"
0#
1$
02
03
14
0)!
0*!
0+!
0,!
0-!
0.!
0/!
00!
01!
02!
03!
04!
05!
06!
07!
08!
09!
0:!
0;!
0<!
0=!
0>!
0?!
0@!
0A!
0B!
0C!
0D!
0E!
0F!
0G!
0H!
1:
1;
1<
0=
16
17
18
09
$end
#40000
1!
10
1@
1=
1A
1H!
0B
1E
#80000
0!
00
0@
0=
0A
#120000
1!
10
1@
1=
1A
0H!
1G!
1B
#160000
0!
00
0@
0=
0A
#200000
1!
10
1@
1=
1A
1H!
0B
0E
1F
1G
#240000
0!
00
0@
0=
0A
#280000
1!
10
1@
1=
1A
0H!
0G!
1F!
0G
0H
1c
1B
0F
1G
1H
1(!
1I
0I
1>
11
1&
#320000
0!
00
0@
0=
0A
#360000
1!
10
1@
1=
1A
1H!
0B
1E
#400000
0!
1%
00
15
1C
0@
19
0=
0A
1D
0I!
0H!
0F!
0G
0c
1B
0E
0(!
0>
01
0&
#440000
1!
10
1@
1=
1A
#460000
0%
05
0C
09
0D
1I!
#480000
0!
00
0@
0=
0A
#520000
1!
10
1@
1=
1A
1H!
0B
1E
#560000
0!
00
0@
0=
0A
#600000
1!
10
1@
1=
1A
0H!
1G!
1B
#640000
0!
00
0@
0=
0A
#680000
1!
10
1@
1=
1A
1H!
0B
0E
1F
1G
#720000
0!
00
0@
0=
0A
#760000
1!
10
1@
1=
1A
0H!
0G!
1F!
0G
0H
1c
1B
0F
1G
1H
1(!
1I
0I
1>
11
1&
#800000
0!
00
0@
0=
0A
#840000
1!
10
1@
1=
1A
1H!
0B
1E
#880000
0!
00
0@
0=
0A
#920000
1!
10
1@
1=
1A
0H!
1G!
1B
#960000
0!
00
0@
0=
0A
