COA LAB/LABS/LAB5/simulation/qsim/FSMdiv.msim.vcd
$comment
	File created using the following command:
		vcd file FSMdiv.msim.vcd -direction
$end
$date
	Thu Oct 10 11:08:32 2024
$end
$version
	ModelSim Version 2020.1
$end
$timescale
	1ps
$end

$scope module fsmdiv_vhd_vec_tst $end
$var wire 1 ! clk $end
$var wire 1 " letstart $end
$var wire 1 # quot [3] $end
$var wire 1 $ quot [2] $end
$var wire 1 % quot [1] $end
$var wire 1 & quot [0] $end
$var wire 1 ' remaind [3] $end
$var wire 1 ( remaind [2] $end
$var wire 1 ) remaind [1] $end
$var wire 1 * remaind [0] $end

$scope module i1 $end
$var wire 1 + gnd $end
$var wire 1 , vcc $end
$var wire 1 - unknown $end
$var wire 1 . devoe $end
$var wire 1 / devclrn $end
$var wire 1 0 devpor $end
$var wire 1 1 ww_devoe $end
$var wire 1 2 ww_devclrn $end
$var wire 1 3 ww_devpor $end
$var wire 1 4 ww_clk $end
$var wire 1 5 ww_letstart $end
$var wire 1 6 ww_remaind [3] $end
$var wire 1 7 ww_remaind [2] $end
$var wire 1 8 ww_remaind [1] $end
$var wire 1 9 ww_remaind [0] $end
$var wire 1 : ww_quot [3] $end
$var wire 1 ; ww_quot [2] $end
$var wire 1 < ww_quot [1] $end
$var wire 1 = ww_quot [0] $end
$var wire 1 > \remaind[0]~output_o\ $end
$var wire 1 ? \remaind[1]~output_o\ $end
$var wire 1 @ \remaind[2]~output_o\ $end
$var wire 1 A \remaind[3]~output_o\ $end
$var wire 1 B \quot[0]~output_o\ $end
$var wire 1 C \quot[1]~output_o\ $end
$var wire 1 D \quot[2]~output_o\ $end
$var wire 1 E \quot[3]~output_o\ $end
$var wire 1 F \clk~input_o\ $end
$var wire 1 G \letstart~input_o\ $end
$var wire 1 H \Mux2~0_combout\ $end
$var wire 1 I \Mux12~0_combout\ $end
$var wire 1 J \Mux12~1_combout\ $end
$var wire 1 K \Mux14~0_combout\ $end
$var wire 1 L \x[0]~0_combout\ $end
$var wire 1 M \x[0]~1_combout\ $end
$var wire 1 N \Mux1~0_combout\ $end
$var wire 1 O \LessThan0~0_combout\ $end
$var wire 1 P \Mux13~0_combout\ $end
$var wire 1 Q \x[3]~2_combout\ $end
$var wire 1 R \Mux13~1_combout\ $end
$var wire 1 S \Mux13~2_combout\ $end
$var wire 1 T \Mux3~0_combout\ $end
$var wire 1 U \Mux18~0_combout\ $end
$var wire 1 V \remaind[0]~reg0_q\ $end
$var wire 1 W \remaind[1]~reg0feeder_combout\ $end
$var wire 1 X \remaind[1]~reg0_q\ $end
$var wire 1 Y \remaind[2]~reg0feeder_combout\ $end
$var wire 1 Z \remaind[2]~reg0_q\ $end
$var wire 1 [ \remaind[3]~0_combout\ $end
$var wire 1 \ \remaind[3]~reg0_q\ $end
$var wire 1 ] \quot[0]~reg0feeder_combout\ $end
$var wire 1 ^ \quot[0]~reg0_q\ $end
$var wire 1 _ \quot[1]~reg0feeder_combout\ $end
$var wire 1 ` \quot[1]~reg0_q\ $end
$var wire 1 a \Mux9~0_combout\ $end
$var wire 1 b \quot[2]~reg0feeder_combout\ $end
$var wire 1 c \quot[2]~reg0_q\ $end
$var wire 1 d \Add1~0_combout\ $end
$var wire 1 e \Mux8~0_combout\ $end
$var wire 1 f \quot[3]~reg0feeder_combout\ $end
$var wire 1 g \quot[3]~reg0_q\ $end
$var wire 1 h x [3] $end
$var wire 1 i x [2] $end
$var wire 1 j x [1] $end
$var wire 1 k x [0] $end
$var wire 1 l mystate [2] $end
$var wire 1 m mystate [1] $end
$var wire 1 n mystate [0] $end
$var wire 1 o q [3] $end
$var wire 1 p q [2] $end
$var wire 1 q q [1] $end
$var wire 1 r q [0] $end
$upscope $end
$upscope $end
$enddefinitions $end
#0
$dumpvars
0!
1"
0+
1,
x-
1.
1/
10
11
12
13
04
15
0>
0?
0@
0A
0B
0C
0D
0E
0F
1G
0H
0I
0J
1K
0L
1M
0N
1O
1P
0Q
1R
1S
0T
0U
0V
0W
0X
0Y
0Z
1[
0\
0]
0^
0_
0`
0a
0b
0c
0d
0e
0f
0g
0'
0(
0)
0*
0#
0$
0%
0&
06
07
08
09
0:
0;
0<
0=
0h
0i
0j
0k
0l
0m
0n
0o
0p
xq
xr
$end
#40000
1!
14
1F
1n
1m
1I
1N
1Q
1T
#80000
0!
04
0F
#120000
1!
14
1F
1i
1h
1k
1H
0T
1]
1J
0M
0R
0[
0I
0N
0O
1Y
0J
1M
#160000
0!
04
0F
#200000
1!
14
1F
1j
0i
0k
1T
0]
0Y
1I
1N
1O
1W
1_
0S
1J
0M
#240000
0!
04
0F
#280000
1!
14
1F
1l
0m
0H
0I
0N
0Q
1R
0T
0J
0K
1L
0P
1U
1Q
#320000
0!
04
0F
#360000
1!
14
1F
0l
0n
1X
1`
1K
0L
1P
0U
0Q
1S
1M
1C
1?
1<
18
1%
1)
#400000
0!
04
0F
#440000
1!
14
1F
1n
0j
0h
1m
1T
1Q
1[
1I
1N
0W
0_
#480000
0!
04
0F
#520000
1!
14
1F
1i
1h
1k
1H
0T
1]
1J
0M
0R
0[
0I
0N
0O
1Y
0J
1M
#560000
0!
04
0F
#600000
1!
14
1F
1j
0i
0k
1T
0]
0Y
1I
1N
1O
1W
1_
0S
1J
0M
#640000
0!
04
0F
#680000
1!
14
1F
1l
0m
0H
0I
0N
0Q
1R
0T
0J
0K
1L
0P
1U
1Q
#720000
0!
04
0F
#760000
1!
14
1F
0l
0n
1K
0L
1P
0U
0Q
1S
1M
#800000
0!
04
0F
#840000
1!
14
1F
1n
0j
0h
1m
1T
1Q
1[
1I
1N
0W
0_
#880000
0!
04
0F
#920000
1!
14
1F
1i
1h
1k
1H
0T
1]
1J
0M
0R
0[
0I
0N
0O
1Y
0J
1M
#960000
0!
04
0F
