COA LAB/LABS/LAB5/simulation/qsim/FSMdiv.msim.vcd
$comment
	File created using the following command:
		vcd file FSMdiv.msim.vcd -direction
$end
$date
	Tue Dec 17 02:04:23 2024
$end
$version
	ModelSim Version 2020.1
$end
$timescale
	1ps
$end

$scope module fsmdiv_vhd_vec_tst $end
$var wire 1 ! clk $end
$var wire 1 " letstart $end
$var wire 1 # quot [3] $end
$var wire 1 $ quot [2] $end
$var wire 1 % quot [1] $end
$var wire 1 & quot [0] $end
$var wire 1 ' remaind [3] $end
$var wire 1 ( remaind [2] $end
$var wire 1 ) remaind [1] $end
$var wire 1 * remaind [0] $end

$scope module i1 $end
$var wire 1 + gnd $end
$var wire 1 , vcc $end
$var wire 1 - unknown $end
$var wire 1 . devoe $end
$var wire 1 / devclrn $end
$var wire 1 0 devpor $end
$var wire 1 1 ww_devoe $end
$var wire 1 2 ww_devclrn $end
$var wire 1 3 ww_devpor $end
$var wire 1 4 ww_clk $end
$var wire 1 5 ww_letstart $end
$var wire 1 6 ww_remaind [3] $end
$var wire 1 7 ww_remaind [2] $end
$var wire 1 8 ww_remaind [1] $end
$var wire 1 9 ww_remaind [0] $end
$var wire 1 : ww_quot [3] $end
$var wire 1 ; ww_quot [2] $end
$var wire 1 < ww_quot [1] $end
$var wire 1 = ww_quot [0] $end
$var wire 1 > \clk~inputclkctrl_INCLK_bus\ [3] $end
$var wire 1 ? \clk~inputclkctrl_INCLK_bus\ [2] $end
$var wire 1 @ \clk~inputclkctrl_INCLK_bus\ [1] $end
$var wire 1 A \clk~inputclkctrl_INCLK_bus\ [0] $end
$var wire 1 B \remaind[0]~output_o\ $end
$var wire 1 C \remaind[1]~output_o\ $end
$var wire 1 D \remaind[2]~output_o\ $end
$var wire 1 E \remaind[3]~output_o\ $end
$var wire 1 F \quot[0]~output_o\ $end
$var wire 1 G \quot[1]~output_o\ $end
$var wire 1 H \quot[2]~output_o\ $end
$var wire 1 I \quot[3]~output_o\ $end
$var wire 1 J \clk~input_o\ $end
$var wire 1 K \clk~inputclkctrl_outclk\ $end
$var wire 1 L \letstart~input_o\ $end
$var wire 1 M \Mux14~0_combout\ $end
$var wire 1 N \Mux2~0_combout\ $end
$var wire 1 O \x[0]~0_combout\ $end
$var wire 1 P \Mux12~0_combout\ $end
$var wire 1 Q \x[0]~1_combout\ $end
$var wire 1 R \Mux1~0_combout\ $end
$var wire 1 S \LessThan0~0_combout\ $end
$var wire 1 T \x[3]~2_combout\ $end
$var wire 1 U \Mux12~1_combout\ $end
$var wire 1 V \Mux13~0_combout\ $end
$var wire 1 W \Mux13~1_combout\ $end
$var wire 1 X \Mux13~2_combout\ $end
$var wire 1 Y \Mux3~0_combout\ $end
$var wire 1 Z \Mux18~0_combout\ $end
$var wire 1 [ \remaind[0]~reg0_q\ $end
$var wire 1 \ \remaind[1]~reg0feeder_combout\ $end
$var wire 1 ] \remaind[1]~reg0_q\ $end
$var wire 1 ^ \remaind[2]~reg0feeder_combout\ $end
$var wire 1 _ \remaind[2]~reg0_q\ $end
$var wire 1 ` \remaind[3]~0_combout\ $end
$var wire 1 a \remaind[3]~reg0_q\ $end
$var wire 1 b \quot[0]~reg0feeder_combout\ $end
$var wire 1 c \quot[0]~reg0_q\ $end
$var wire 1 d \quot[1]~reg0feeder_combout\ $end
$var wire 1 e \quot[1]~reg0_q\ $end
$var wire 1 f \Mux9~0_combout\ $end
$var wire 1 g \quot[2]~reg0feeder_combout\ $end
$var wire 1 h \quot[2]~reg0_q\ $end
$var wire 1 i \Add1~0_combout\ $end
$var wire 1 j \Mux8~0_combout\ $end
$var wire 1 k \quot[3]~reg0feeder_combout\ $end
$var wire 1 l \quot[3]~reg0_q\ $end
$var wire 1 m x [3] $end
$var wire 1 n x [2] $end
$var wire 1 o x [1] $end
$var wire 1 p x [0] $end
$var wire 1 q mystate [2] $end
$var wire 1 r mystate [1] $end
$var wire 1 s mystate [0] $end
$var wire 1 t q [3] $end
$var wire 1 u q [2] $end
$var wire 1 v q [1] $end
$var wire 1 w q [0] $end
$upscope $end
$upscope $end
$enddefinitions $end
#0
$dumpvars
0!
0"
0+
1,
x-
1.
1/
10
11
12
13
04
05
0B
0C
0D
0E
0F
0G
0H
0I
0J
0K
0L
0M
0N
0O
0P
1Q
0R
1S
0T
0U
1V
0W
0X
0Y
0Z
0[
0\
0]
0^
0_
1`
0a
0b
0c
0d
0e
0f
0g
0h
0i
0j
0k
0l
06
07
08
09
0:
0;
0<
0=
0m
0n
0o
0p
0q
0r
0s
0t
0u
xv
xw
1>
1?
1@
0A
0#
0$
0%
0&
0'
0(
0)
0*
$end
#40000
1"
15
1L
1M
1W
1X
#60000
1!
14
1J
1A
1K
1s
1r
1P
1R
1T
1Y
#100000
0!
04
0J
0A
0K
#140000
1!
14
1J
1A
1K
1n
1m
1p
1N
0Y
1b
0Q
1U
0W
0`
0P
0R
0S
1^
1Q
0U
#180000
0!
04
0J
0A
0K
#220000
1!
14
1J
1A
1K
1o
0n
0p
1Y
0b
0^
1P
1R
1S
1\
1d
0X
0Q
1U
#260000
0!
04
0J
0A
0K
#300000
1!
14
1J
1A
1K
1q
0r
0N
0P
0R
0T
1W
0Y
0M
1O
0U
0V
1Z
1T
#340000
0!
04
0J
0A
0K
#380000
1!
14
1J
1A
1K
0s
0q
1]
1e
1M
0O
1V
0Z
0T
1X
1Q
1G
1C
1<
18
1%
1)
#420000
0!
04
0J
0A
0K
#460000
1!
14
1J
1A
1K
1s
0o
0m
1r
1Y
1T
1`
1P
1R
0\
0d
#500000
0!
04
0J
0A
0K
#540000
1!
14
1J
1A
1K
1n
1m
1p
1N
0Y
1b
0Q
1U
0W
0`
0P
0R
0S
1^
1Q
0U
#580000
0!
04
0J
0A
0K
#620000
1!
14
1J
1A
1K
1o
0n
0p
1Y
0b
0^
1P
1R
1S
1\
1d
0X
0Q
1U
#660000
0!
04
0J
0A
0K
#700000
1!
14
1J
1A
1K
1q
0r
0N
0P
0R
0T
1W
0Y
0M
1O
0U
0V
1Z
1T
#740000
0!
04
0J
0A
0K
#780000
1!
14
1J
1A
1K
0s
0q
1M
0O
1V
0Z
0T
1X
1Q
#820000
0!
04
0J
0A
0K
#860000
1!
14
1J
1A
1K
1s
0o
0m
1r
1Y
1T
1`
1P
1R
0\
0d
#900000
0!
04
0J
0A
0K
#940000
0"
05
0L
